reset
set term postscript eps color solid 22
set output "ACS_ntfx.eps"
set grid
set key top left
#set key outside
set xlabel "#Feature Space Size"
#set yrange [0:*]
set ylabel "Training Time [s,log scale]"
#set xtic rotate by -45 scale 0

set style line 1  lt 1 lw 4 pt 8 ps 2 lc rgb "#D55E00"
set style line 2  lt 2 lw 4 pt 6 ps 2 lc rgb "#56B4E9"
set style line 3  lt 3 lw 4 pt 4 ps 2 lc rgb "#CC79A7"
set style line 4  lt 4 lw 4 pt 12 ps 2 lc rgb "#009E73"
set style line 5  lt 5 lw 4 pt 2 ps 2 lc rgb "#999999"
set style line 6  lt 6 lw 4 pt 10 ps 2 lc rgb "#D54E00"

set logscale y 2

plot "ACS_ntfx.dat" using 2:xtic(1) title 'CDMF-NTFX' with linespoints ls 1,'' using 3:xtic(1) title 'BALS-NTFX' with linespoints ls 2, "ACS_yhr1.dat" using 2:xtic(1) title 'CDMF-YHR1' with linespoints ls 3,'' using 3:xtic(1) title 'BALS-YHR1' with linespoints ls 4
