%!PS-Adobe-2.0 EPSF-2.0
%%Title: feature.eps
%%Creator: gnuplot 4.6 patchlevel 6
%%CreationDate: Thu Nov  9 12:53:51 2017
%%DocumentFonts: (atend)
%%BoundingBox: 50 50 410 302
%%EndComments
%%BeginProlog
/gnudict 256 dict def
gnudict begin
%
% The following true/false flags may be edited by hand if desired.
% The unit line width and grayscale image gamma correction may also be changed.
%
/Color true def
/Blacktext false def
/Solid true def
/Dashlength 1 def
/Landscape false def
/Level1 false def
/Rounded false def
/ClipToBoundingBox false def
/SuppressPDFMark false def
/TransparentPatterns false def
/gnulinewidth 5.000 def
/userlinewidth gnulinewidth def
/Gamma 1.0 def
/BackgroundColor {-1.000 -1.000 -1.000} def
%
/vshift -66 def
/dl1 {
  10.0 Dashlength mul mul
  Rounded { currentlinewidth 0.75 mul sub dup 0 le { pop 0.01 } if } if
} def
/dl2 {
  10.0 Dashlength mul mul
  Rounded { currentlinewidth 0.75 mul add } if
} def
/hpt_ 31.5 def
/vpt_ 31.5 def
/hpt hpt_ def
/vpt vpt_ def
/doclip {
  ClipToBoundingBox {
    newpath 50 50 moveto 410 50 lineto 410 302 lineto 50 302 lineto closepath
    clip
  } if
} def
%
% Gnuplot Prolog Version 4.6 (September 2012)
%
%/SuppressPDFMark true def
%
/M {moveto} bind def
/L {lineto} bind def
/R {rmoveto} bind def
/V {rlineto} bind def
/N {newpath moveto} bind def
/Z {closepath} bind def
/C {setrgbcolor} bind def
/f {rlineto fill} bind def
/g {setgray} bind def
/Gshow {show} def   % May be redefined later in the file to support UTF-8
/vpt2 vpt 2 mul def
/hpt2 hpt 2 mul def
/Lshow {currentpoint stroke M 0 vshift R 
	Blacktext {gsave 0 setgray show grestore} {show} ifelse} def
/Rshow {currentpoint stroke M dup stringwidth pop neg vshift R
	Blacktext {gsave 0 setgray show grestore} {show} ifelse} def
/Cshow {currentpoint stroke M dup stringwidth pop -2 div vshift R 
	Blacktext {gsave 0 setgray show grestore} {show} ifelse} def
/UP {dup vpt_ mul /vpt exch def hpt_ mul /hpt exch def
  /hpt2 hpt 2 mul def /vpt2 vpt 2 mul def} def
/DL {Color {setrgbcolor Solid {pop []} if 0 setdash}
 {pop pop pop 0 setgray Solid {pop []} if 0 setdash} ifelse} def
/BL {stroke userlinewidth 2 mul setlinewidth
	Rounded {1 setlinejoin 1 setlinecap} if} def
/AL {stroke userlinewidth 2 div setlinewidth
	Rounded {1 setlinejoin 1 setlinecap} if} def
/UL {dup gnulinewidth mul /userlinewidth exch def
	dup 1 lt {pop 1} if 10 mul /udl exch def} def
/PL {stroke userlinewidth setlinewidth
	Rounded {1 setlinejoin 1 setlinecap} if} def
3.8 setmiterlimit
% Default Line colors
/LCw {1 1 1} def
/LCb {0 0 0} def
/LCa {0 0 0} def
/LC0 {1 0 0} def
/LC1 {0 1 0} def
/LC2 {0 0 1} def
/LC3 {1 0 1} def
/LC4 {0 1 1} def
/LC5 {1 1 0} def
/LC6 {0 0 0} def
/LC7 {1 0.3 0} def
/LC8 {0.5 0.5 0.5} def
% Default Line Types
/LTw {PL [] 1 setgray} def
/LTb {BL [] LCb DL} def
/LTa {AL [1 udl mul 2 udl mul] 0 setdash LCa setrgbcolor} def
/LT0 {PL [] LC0 DL} def
/LT1 {PL [4 dl1 2 dl2] LC1 DL} def
/LT2 {PL [2 dl1 3 dl2] LC2 DL} def
/LT3 {PL [1 dl1 1.5 dl2] LC3 DL} def
/LT4 {PL [6 dl1 2 dl2 1 dl1 2 dl2] LC4 DL} def
/LT5 {PL [3 dl1 3 dl2 1 dl1 3 dl2] LC5 DL} def
/LT6 {PL [2 dl1 2 dl2 2 dl1 6 dl2] LC6 DL} def
/LT7 {PL [1 dl1 2 dl2 6 dl1 2 dl2 1 dl1 2 dl2] LC7 DL} def
/LT8 {PL [2 dl1 2 dl2 2 dl1 2 dl2 2 dl1 2 dl2 2 dl1 4 dl2] LC8 DL} def
/Pnt {stroke [] 0 setdash gsave 1 setlinecap M 0 0 V stroke grestore} def
/Dia {stroke [] 0 setdash 2 copy vpt add M
  hpt neg vpt neg V hpt vpt neg V
  hpt vpt V hpt neg vpt V closepath stroke
  Pnt} def
/Pls {stroke [] 0 setdash vpt sub M 0 vpt2 V
  currentpoint stroke M
  hpt neg vpt neg R hpt2 0 V stroke
 } def
/Box {stroke [] 0 setdash 2 copy exch hpt sub exch vpt add M
  0 vpt2 neg V hpt2 0 V 0 vpt2 V
  hpt2 neg 0 V closepath stroke
  Pnt} def
/Crs {stroke [] 0 setdash exch hpt sub exch vpt add M
  hpt2 vpt2 neg V currentpoint stroke M
  hpt2 neg 0 R hpt2 vpt2 V stroke} def
/TriU {stroke [] 0 setdash 2 copy vpt 1.12 mul add M
  hpt neg vpt -1.62 mul V
  hpt 2 mul 0 V
  hpt neg vpt 1.62 mul V closepath stroke
  Pnt} def
/Star {2 copy Pls Crs} def
/BoxF {stroke [] 0 setdash exch hpt sub exch vpt add M
  0 vpt2 neg V hpt2 0 V 0 vpt2 V
  hpt2 neg 0 V closepath fill} def
/TriUF {stroke [] 0 setdash vpt 1.12 mul add M
  hpt neg vpt -1.62 mul V
  hpt 2 mul 0 V
  hpt neg vpt 1.62 mul V closepath fill} def
/TriD {stroke [] 0 setdash 2 copy vpt 1.12 mul sub M
  hpt neg vpt 1.62 mul V
  hpt 2 mul 0 V
  hpt neg vpt -1.62 mul V closepath stroke
  Pnt} def
/TriDF {stroke [] 0 setdash vpt 1.12 mul sub M
  hpt neg vpt 1.62 mul V
  hpt 2 mul 0 V
  hpt neg vpt -1.62 mul V closepath fill} def
/DiaF {stroke [] 0 setdash vpt add M
  hpt neg vpt neg V hpt vpt neg V
  hpt vpt V hpt neg vpt V closepath fill} def
/Pent {stroke [] 0 setdash 2 copy gsave
  translate 0 hpt M 4 {72 rotate 0 hpt L} repeat
  closepath stroke grestore Pnt} def
/PentF {stroke [] 0 setdash gsave
  translate 0 hpt M 4 {72 rotate 0 hpt L} repeat
  closepath fill grestore} def
/Circle {stroke [] 0 setdash 2 copy
  hpt 0 360 arc stroke Pnt} def
/CircleF {stroke [] 0 setdash hpt 0 360 arc fill} def
/C0 {BL [] 0 setdash 2 copy moveto vpt 90 450 arc} bind def
/C1 {BL [] 0 setdash 2 copy moveto
	2 copy vpt 0 90 arc closepath fill
	vpt 0 360 arc closepath} bind def
/C2 {BL [] 0 setdash 2 copy moveto
	2 copy vpt 90 180 arc closepath fill
	vpt 0 360 arc closepath} bind def
/C3 {BL [] 0 setdash 2 copy moveto
	2 copy vpt 0 180 arc closepath fill
	vpt 0 360 arc closepath} bind def
/C4 {BL [] 0 setdash 2 copy moveto
	2 copy vpt 180 270 arc closepath fill
	vpt 0 360 arc closepath} bind def
/C5 {BL [] 0 setdash 2 copy moveto
	2 copy vpt 0 90 arc
	2 copy moveto
	2 copy vpt 180 270 arc closepath fill
	vpt 0 360 arc} bind def
/C6 {BL [] 0 setdash 2 copy moveto
	2 copy vpt 90 270 arc closepath fill
	vpt 0 360 arc closepath} bind def
/C7 {BL [] 0 setdash 2 copy moveto
	2 copy vpt 0 270 arc closepath fill
	vpt 0 360 arc closepath} bind def
/C8 {BL [] 0 setdash 2 copy moveto
	2 copy vpt 270 360 arc closepath fill
	vpt 0 360 arc closepath} bind def
/C9 {BL [] 0 setdash 2 copy moveto
	2 copy vpt 270 450 arc closepath fill
	vpt 0 360 arc closepath} bind def
/C10 {BL [] 0 setdash 2 copy 2 copy moveto vpt 270 360 arc closepath fill
	2 copy moveto
	2 copy vpt 90 180 arc closepath fill
	vpt 0 360 arc closepath} bind def
/C11 {BL [] 0 setdash 2 copy moveto
	2 copy vpt 0 180 arc closepath fill
	2 copy moveto
	2 copy vpt 270 360 arc closepath fill
	vpt 0 360 arc closepath} bind def
/C12 {BL [] 0 setdash 2 copy moveto
	2 copy vpt 180 360 arc closepath fill
	vpt 0 360 arc closepath} bind def
/C13 {BL [] 0 setdash 2 copy moveto
	2 copy vpt 0 90 arc closepath fill
	2 copy moveto
	2 copy vpt 180 360 arc closepath fill
	vpt 0 360 arc closepath} bind def
/C14 {BL [] 0 setdash 2 copy moveto
	2 copy vpt 90 360 arc closepath fill
	vpt 0 360 arc} bind def
/C15 {BL [] 0 setdash 2 copy vpt 0 360 arc closepath fill
	vpt 0 360 arc closepath} bind def
/Rec {newpath 4 2 roll moveto 1 index 0 rlineto 0 exch rlineto
	neg 0 rlineto closepath} bind def
/Square {dup Rec} bind def
/Bsquare {vpt sub exch vpt sub exch vpt2 Square} bind def
/S0 {BL [] 0 setdash 2 copy moveto 0 vpt rlineto BL Bsquare} bind def
/S1 {BL [] 0 setdash 2 copy vpt Square fill Bsquare} bind def
/S2 {BL [] 0 setdash 2 copy exch vpt sub exch vpt Square fill Bsquare} bind def
/S3 {BL [] 0 setdash 2 copy exch vpt sub exch vpt2 vpt Rec fill Bsquare} bind def
/S4 {BL [] 0 setdash 2 copy exch vpt sub exch vpt sub vpt Square fill Bsquare} bind def
/S5 {BL [] 0 setdash 2 copy 2 copy vpt Square fill
	exch vpt sub exch vpt sub vpt Square fill Bsquare} bind def
/S6 {BL [] 0 setdash 2 copy exch vpt sub exch vpt sub vpt vpt2 Rec fill Bsquare} bind def
/S7 {BL [] 0 setdash 2 copy exch vpt sub exch vpt sub vpt vpt2 Rec fill
	2 copy vpt Square fill Bsquare} bind def
/S8 {BL [] 0 setdash 2 copy vpt sub vpt Square fill Bsquare} bind def
/S9 {BL [] 0 setdash 2 copy vpt sub vpt vpt2 Rec fill Bsquare} bind def
/S10 {BL [] 0 setdash 2 copy vpt sub vpt Square fill 2 copy exch vpt sub exch vpt Square fill
	Bsquare} bind def
/S11 {BL [] 0 setdash 2 copy vpt sub vpt Square fill 2 copy exch vpt sub exch vpt2 vpt Rec fill
	Bsquare} bind def
/S12 {BL [] 0 setdash 2 copy exch vpt sub exch vpt sub vpt2 vpt Rec fill Bsquare} bind def
/S13 {BL [] 0 setdash 2 copy exch vpt sub exch vpt sub vpt2 vpt Rec fill
	2 copy vpt Square fill Bsquare} bind def
/S14 {BL [] 0 setdash 2 copy exch vpt sub exch vpt sub vpt2 vpt Rec fill
	2 copy exch vpt sub exch vpt Square fill Bsquare} bind def
/S15 {BL [] 0 setdash 2 copy Bsquare fill Bsquare} bind def
/D0 {gsave translate 45 rotate 0 0 S0 stroke grestore} bind def
/D1 {gsave translate 45 rotate 0 0 S1 stroke grestore} bind def
/D2 {gsave translate 45 rotate 0 0 S2 stroke grestore} bind def
/D3 {gsave translate 45 rotate 0 0 S3 stroke grestore} bind def
/D4 {gsave translate 45 rotate 0 0 S4 stroke grestore} bind def
/D5 {gsave translate 45 rotate 0 0 S5 stroke grestore} bind def
/D6 {gsave translate 45 rotate 0 0 S6 stroke grestore} bind def
/D7 {gsave translate 45 rotate 0 0 S7 stroke grestore} bind def
/D8 {gsave translate 45 rotate 0 0 S8 stroke grestore} bind def
/D9 {gsave translate 45 rotate 0 0 S9 stroke grestore} bind def
/D10 {gsave translate 45 rotate 0 0 S10 stroke grestore} bind def
/D11 {gsave translate 45 rotate 0 0 S11 stroke grestore} bind def
/D12 {gsave translate 45 rotate 0 0 S12 stroke grestore} bind def
/D13 {gsave translate 45 rotate 0 0 S13 stroke grestore} bind def
/D14 {gsave translate 45 rotate 0 0 S14 stroke grestore} bind def
/D15 {gsave translate 45 rotate 0 0 S15 stroke grestore} bind def
/DiaE {stroke [] 0 setdash vpt add M
  hpt neg vpt neg V hpt vpt neg V
  hpt vpt V hpt neg vpt V closepath stroke} def
/BoxE {stroke [] 0 setdash exch hpt sub exch vpt add M
  0 vpt2 neg V hpt2 0 V 0 vpt2 V
  hpt2 neg 0 V closepath stroke} def
/TriUE {stroke [] 0 setdash vpt 1.12 mul add M
  hpt neg vpt -1.62 mul V
  hpt 2 mul 0 V
  hpt neg vpt 1.62 mul V closepath stroke} def
/TriDE {stroke [] 0 setdash vpt 1.12 mul sub M
  hpt neg vpt 1.62 mul V
  hpt 2 mul 0 V
  hpt neg vpt -1.62 mul V closepath stroke} def
/PentE {stroke [] 0 setdash gsave
  translate 0 hpt M 4 {72 rotate 0 hpt L} repeat
  closepath stroke grestore} def
/CircE {stroke [] 0 setdash 
  hpt 0 360 arc stroke} def
/Opaque {gsave closepath 1 setgray fill grestore 0 setgray closepath} def
/DiaW {stroke [] 0 setdash vpt add M
  hpt neg vpt neg V hpt vpt neg V
  hpt vpt V hpt neg vpt V Opaque stroke} def
/BoxW {stroke [] 0 setdash exch hpt sub exch vpt add M
  0 vpt2 neg V hpt2 0 V 0 vpt2 V
  hpt2 neg 0 V Opaque stroke} def
/TriUW {stroke [] 0 setdash vpt 1.12 mul add M
  hpt neg vpt -1.62 mul V
  hpt 2 mul 0 V
  hpt neg vpt 1.62 mul V Opaque stroke} def
/TriDW {stroke [] 0 setdash vpt 1.12 mul sub M
  hpt neg vpt 1.62 mul V
  hpt 2 mul 0 V
  hpt neg vpt -1.62 mul V Opaque stroke} def
/PentW {stroke [] 0 setdash gsave
  translate 0 hpt M 4 {72 rotate 0 hpt L} repeat
  Opaque stroke grestore} def
/CircW {stroke [] 0 setdash 
  hpt 0 360 arc Opaque stroke} def
/BoxFill {gsave Rec 1 setgray fill grestore} def
/Density {
  /Fillden exch def
  currentrgbcolor
  /ColB exch def /ColG exch def /ColR exch def
  /ColR ColR Fillden mul Fillden sub 1 add def
  /ColG ColG Fillden mul Fillden sub 1 add def
  /ColB ColB Fillden mul Fillden sub 1 add def
  ColR ColG ColB setrgbcolor} def
/BoxColFill {gsave Rec PolyFill} def
/PolyFill {gsave Density fill grestore grestore} def
/h {rlineto rlineto rlineto gsave closepath fill grestore} bind def
%
% PostScript Level 1 Pattern Fill routine for rectangles
% Usage: x y w h s a XX PatternFill
%	x,y = lower left corner of box to be filled
%	w,h = width and height of box
%	  a = angle in degrees between lines and x-axis
%	 XX = 0/1 for no/yes cross-hatch
%
/PatternFill {gsave /PFa [ 9 2 roll ] def
  PFa 0 get PFa 2 get 2 div add PFa 1 get PFa 3 get 2 div add translate
  PFa 2 get -2 div PFa 3 get -2 div PFa 2 get PFa 3 get Rec
  TransparentPatterns {} {gsave 1 setgray fill grestore} ifelse
  clip
  currentlinewidth 0.5 mul setlinewidth
  /PFs PFa 2 get dup mul PFa 3 get dup mul add sqrt def
  0 0 M PFa 5 get rotate PFs -2 div dup translate
  0 1 PFs PFa 4 get div 1 add floor cvi
	{PFa 4 get mul 0 M 0 PFs V} for
  0 PFa 6 get ne {
	0 1 PFs PFa 4 get div 1 add floor cvi
	{PFa 4 get mul 0 2 1 roll M PFs 0 V} for
 } if
  stroke grestore} def
%
/languagelevel where
 {pop languagelevel} {1} ifelse
 2 lt
	{/InterpretLevel1 true def}
	{/InterpretLevel1 Level1 def}
 ifelse
%
% PostScript level 2 pattern fill definitions
%
/Level2PatternFill {
/Tile8x8 {/PaintType 2 /PatternType 1 /TilingType 1 /BBox [0 0 8 8] /XStep 8 /YStep 8}
	bind def
/KeepColor {currentrgbcolor [/Pattern /DeviceRGB] setcolorspace} bind def
<< Tile8x8
 /PaintProc {0.5 setlinewidth pop 0 0 M 8 8 L 0 8 M 8 0 L stroke} 
>> matrix makepattern
/Pat1 exch def
<< Tile8x8
 /PaintProc {0.5 setlinewidth pop 0 0 M 8 8 L 0 8 M 8 0 L stroke
	0 4 M 4 8 L 8 4 L 4 0 L 0 4 L stroke}
>> matrix makepattern
/Pat2 exch def
<< Tile8x8
 /PaintProc {0.5 setlinewidth pop 0 0 M 0 8 L
	8 8 L 8 0 L 0 0 L fill}
>> matrix makepattern
/Pat3 exch def
<< Tile8x8
 /PaintProc {0.5 setlinewidth pop -4 8 M 8 -4 L
	0 12 M 12 0 L stroke}
>> matrix makepattern
/Pat4 exch def
<< Tile8x8
 /PaintProc {0.5 setlinewidth pop -4 0 M 8 12 L
	0 -4 M 12 8 L stroke}
>> matrix makepattern
/Pat5 exch def
<< Tile8x8
 /PaintProc {0.5 setlinewidth pop -2 8 M 4 -4 L
	0 12 M 8 -4 L 4 12 M 10 0 L stroke}
>> matrix makepattern
/Pat6 exch def
<< Tile8x8
 /PaintProc {0.5 setlinewidth pop -2 0 M 4 12 L
	0 -4 M 8 12 L 4 -4 M 10 8 L stroke}
>> matrix makepattern
/Pat7 exch def
<< Tile8x8
 /PaintProc {0.5 setlinewidth pop 8 -2 M -4 4 L
	12 0 M -4 8 L 12 4 M 0 10 L stroke}
>> matrix makepattern
/Pat8 exch def
<< Tile8x8
 /PaintProc {0.5 setlinewidth pop 0 -2 M 12 4 L
	-4 0 M 12 8 L -4 4 M 8 10 L stroke}
>> matrix makepattern
/Pat9 exch def
/Pattern1 {PatternBgnd KeepColor Pat1 setpattern} bind def
/Pattern2 {PatternBgnd KeepColor Pat2 setpattern} bind def
/Pattern3 {PatternBgnd KeepColor Pat3 setpattern} bind def
/Pattern4 {PatternBgnd KeepColor Landscape {Pat5} {Pat4} ifelse setpattern} bind def
/Pattern5 {PatternBgnd KeepColor Landscape {Pat4} {Pat5} ifelse setpattern} bind def
/Pattern6 {PatternBgnd KeepColor Landscape {Pat9} {Pat6} ifelse setpattern} bind def
/Pattern7 {PatternBgnd KeepColor Landscape {Pat8} {Pat7} ifelse setpattern} bind def
} def
%
%
%End of PostScript Level 2 code
%
/PatternBgnd {
  TransparentPatterns {} {gsave 1 setgray fill grestore} ifelse
} def
%
% Substitute for Level 2 pattern fill codes with
% grayscale if Level 2 support is not selected.
%
/Level1PatternFill {
/Pattern1 {0.250 Density} bind def
/Pattern2 {0.500 Density} bind def
/Pattern3 {0.750 Density} bind def
/Pattern4 {0.125 Density} bind def
/Pattern5 {0.375 Density} bind def
/Pattern6 {0.625 Density} bind def
/Pattern7 {0.875 Density} bind def
} def
%
% Now test for support of Level 2 code
%
Level1 {Level1PatternFill} {Level2PatternFill} ifelse
%
/Symbol-Oblique /Symbol findfont [1 0 .167 1 0 0] makefont
dup length dict begin {1 index /FID eq {pop pop} {def} ifelse} forall
currentdict end definefont pop
/MFshow {
   { dup 5 get 3 ge
     { 5 get 3 eq {gsave} {grestore} ifelse }
     {dup dup 0 get findfont exch 1 get scalefont setfont
     [ currentpoint ] exch dup 2 get 0 exch R dup 5 get 2 ne {dup dup 6
     get exch 4 get {Gshow} {stringwidth pop 0 R} ifelse }if dup 5 get 0 eq
     {dup 3 get {2 get neg 0 exch R pop} {pop aload pop M} ifelse} {dup 5
     get 1 eq {dup 2 get exch dup 3 get exch 6 get stringwidth pop -2 div
     dup 0 R} {dup 6 get stringwidth pop -2 div 0 R 6 get
     show 2 index {aload pop M neg 3 -1 roll neg R pop pop} {pop pop pop
     pop aload pop M} ifelse }ifelse }ifelse }
     ifelse }
   forall} def
/Gswidth {dup type /stringtype eq {stringwidth} {pop (n) stringwidth} ifelse} def
/MFwidth {0 exch { dup 5 get 3 ge { 5 get 3 eq { 0 } { pop } ifelse }
 {dup 3 get{dup dup 0 get findfont exch 1 get scalefont setfont
     6 get Gswidth pop add} {pop} ifelse} ifelse} forall} def
/MLshow { currentpoint stroke M
  0 exch R
  Blacktext {gsave 0 setgray MFshow grestore} {MFshow} ifelse } bind def
/MRshow { currentpoint stroke M
  exch dup MFwidth neg 3 -1 roll R
  Blacktext {gsave 0 setgray MFshow grestore} {MFshow} ifelse } bind def
/MCshow { currentpoint stroke M
  exch dup MFwidth -2 div 3 -1 roll R
  Blacktext {gsave 0 setgray MFshow grestore} {MFshow} ifelse } bind def
/XYsave    { [( ) 1 2 true false 3 ()] } bind def
/XYrestore { [( ) 1 2 true false 4 ()] } bind def
Level1 SuppressPDFMark or 
{} {
/SDict 10 dict def
systemdict /pdfmark known not {
  userdict /pdfmark systemdict /cleartomark get put
} if
SDict begin [
  /Title (feature.eps)
  /Subject (gnuplot plot)
  /Creator (gnuplot 4.6 patchlevel 6)
  /Author (cj)
%  /Producer (gnuplot)
%  /Keywords ()
  /CreationDate (Thu Nov  9 12:53:51 2017)
  /DOCINFO pdfmark
end
} ifelse
end
%%EndProlog
%%Page: 1 1
gnudict begin
gsave
doclip
50 50 translate
0.050 0.050 scale
0 setgray
newpath
(Helvetica) findfont 200 scalefont setfont
BackgroundColor 0 lt 3 1 roll 0 lt exch 0 lt or or not {BackgroundColor C 1.000 0 0 7200.00 5040.00 BoxColFill} if
1.000 UL
LTb
LCb setrgbcolor
1.000 UL
LTa
LCa setrgbcolor
1043 640 M
5796 0 V
stroke
LTb
LCb setrgbcolor
1043 640 M
-63 0 V
stroke
860 640 M
[ [(Helvetica) 200.0 0.0 true true 0 ( 0)]
] -66.7 MRshow
1.000 UL
LTb
LCb setrgbcolor
1.000 UL
LTa
LCa setrgbcolor
1043 1263 M
5796 0 V
stroke
LTb
LCb setrgbcolor
1043 1263 M
-63 0 V
stroke
860 1263 M
[ [(Helvetica) 200.0 0.0 true true 0 ( 100)]
] -66.7 MRshow
1.000 UL
LTb
LCb setrgbcolor
1.000 UL
LTa
LCa setrgbcolor
1043 1885 M
5796 0 V
stroke
LTb
LCb setrgbcolor
1043 1885 M
-63 0 V
stroke
860 1885 M
[ [(Helvetica) 200.0 0.0 true true 0 ( 200)]
] -66.7 MRshow
1.000 UL
LTb
LCb setrgbcolor
1.000 UL
LTa
LCa setrgbcolor
1043 2508 M
5796 0 V
stroke
LTb
LCb setrgbcolor
1043 2508 M
-63 0 V
stroke
860 2508 M
[ [(Helvetica) 200.0 0.0 true true 0 ( 300)]
] -66.7 MRshow
1.000 UL
LTb
LCb setrgbcolor
1.000 UL
LTa
LCa setrgbcolor
1043 3131 M
5796 0 V
stroke
LTb
LCb setrgbcolor
1043 3131 M
-63 0 V
stroke
860 3131 M
[ [(Helvetica) 200.0 0.0 true true 0 ( 400)]
] -66.7 MRshow
1.000 UL
LTb
LCb setrgbcolor
1.000 UL
LTa
LCa setrgbcolor
1043 3753 M
5796 0 V
stroke
LTb
LCb setrgbcolor
1043 3753 M
-63 0 V
stroke
860 3753 M
[ [(Helvetica) 200.0 0.0 true true 0 ( 500)]
] -66.7 MRshow
1.000 UL
LTb
LCb setrgbcolor
1.000 UL
LTa
LCa setrgbcolor
1043 4376 M
5796 0 V
stroke
LTb
LCb setrgbcolor
1043 4376 M
-63 0 V
stroke
860 4376 M
[ [(Helvetica) 200.0 0.0 true true 0 ( 600)]
] -66.7 MRshow
1.000 UL
LTb
LCb setrgbcolor
1570 640 M
0 3736 R
stroke
1570 440 M
[ [(Helvetica) 200.0 0.0 true true 0 (8)]
] -66.7 MCshow
1.000 UL
LTb
LCb setrgbcolor
2097 640 M
0 3736 R
stroke
2097 440 M
[ [(Helvetica) 200.0 0.0 true true 0 (16)]
] -66.7 MCshow
1.000 UL
LTb
LCb setrgbcolor
2624 640 M
0 3736 R
stroke
2624 440 M
[ [(Helvetica) 200.0 0.0 true true 0 (24)]
] -66.7 MCshow
1.000 UL
LTb
LCb setrgbcolor
3151 640 M
0 3736 R
stroke
3151 440 M
[ [(Helvetica) 200.0 0.0 true true 0 (32)]
] -66.7 MCshow
1.000 UL
LTb
LCb setrgbcolor
3678 640 M
0 3736 R
stroke
3678 440 M
[ [(Helvetica) 200.0 0.0 true true 0 (40)]
] -66.7 MCshow
1.000 UL
LTb
LCb setrgbcolor
4204 640 M
0 3736 R
stroke
4204 440 M
[ [(Helvetica) 200.0 0.0 true true 0 (48)]
] -66.7 MCshow
1.000 UL
LTb
LCb setrgbcolor
4731 640 M
0 3736 R
stroke
4731 440 M
[ [(Helvetica) 200.0 0.0 true true 0 (56)]
] -66.7 MCshow
1.000 UL
LTb
LCb setrgbcolor
5258 640 M
0 3736 R
stroke
5258 440 M
[ [(Helvetica) 200.0 0.0 true true 0 (64)]
] -66.7 MCshow
1.000 UL
LTb
LCb setrgbcolor
5785 640 M
0 3736 R
stroke
5785 440 M
[ [(Helvetica) 200.0 0.0 true true 0 (80)]
] -66.7 MCshow
1.000 UL
LTb
LCb setrgbcolor
6312 640 M
0 3736 R
stroke
6312 440 M
[ [(Helvetica) 200.0 0.0 true true 0 (96)]
] -66.7 MCshow
1.000 UL
LTb
LCb setrgbcolor
1.000 UL
LTb
LCb setrgbcolor
1043 4376 N
0 -3736 V
5796 0 V
0 3736 V
-5796 0 V
Z stroke
LCb setrgbcolor
160 2508 M
currentpoint gsave translate -270 rotate 0 0 moveto
[ [(Helvetica) 200.0 0.0 true true 0 (#Gflops)]
] -66.7 MCshow
grestore
LTb
LCb setrgbcolor
3941 140 M
[ [(Helvetica) 200.0 0.0 true true 0 (#Feature Space Size)]
] -66.7 MCshow
LTb
1.000 UP
1.000 UL
LTb
LCb setrgbcolor
% Begin plot #1
1.000 UL
LT0
0.84 0.37 0.00 C LCb setrgbcolor
3158 4877 M
[ [(Helvetica) 200.0 0.0 true true 0 (BALS-ML10M)]
] -66.7 MRshow
LT0
0.84 0.37 0.00 C 3278 4827 543 100 80 45 0 PatternFill
3278 4827 N
543 0 V
0 100 V
-543 0 V
0 -100 V
Z stroke
LT0
0.84 0.37 0.00 C 0.84 0.37 0.00 C 1419 640 77 189 80 45 0 PatternFill
1419 640 N
0 188 V
76 0 V
0 -188 V
-76 0 V
Z stroke
0.84 0.37 0.00 C 1946 640 77 438 80 45 0 PatternFill
1946 640 N
0 437 V
76 0 V
0 -437 V
-76 0 V
Z stroke
0.84 0.37 0.00 C 2473 640 76 605 80 45 0 PatternFill
2473 640 N
0 604 V
75 0 V
0 -604 V
-75 0 V
Z stroke
0.84 0.37 0.00 C 3000 640 76 1138 80 45 0 PatternFill
3000 640 N
0 1137 V
75 0 V
0 -1137 V
-75 0 V
Z stroke
0.84 0.37 0.00 C 3527 640 76 901 80 45 0 PatternFill
3527 640 N
0 900 V
75 0 V
0 -900 V
-75 0 V
Z stroke
0.84 0.37 0.00 C 4054 640 76 1342 80 45 0 PatternFill
4054 640 N
0 1341 V
75 0 V
0 -1341 V
-75 0 V
Z stroke
0.84 0.37 0.00 C 4581 640 76 1075 80 45 0 PatternFill
4581 640 N
0 1074 V
75 0 V
0 -1074 V
-75 0 V
Z stroke
0.84 0.37 0.00 C 5108 640 76 2863 80 45 0 PatternFill
5108 640 N
0 2862 V
75 0 V
0 -2862 V
-75 0 V
Z stroke
0.84 0.37 0.00 C 5635 640 76 2960 80 45 0 PatternFill
5635 640 N
0 2959 V
75 0 V
0 -2959 V
-75 0 V
Z stroke
0.84 0.37 0.00 C 6162 640 76 3462 80 45 0 PatternFill
6162 640 N
0 3461 V
75 0 V
0 -3461 V
-75 0 V
Z stroke
% End plot #1
% Begin plot #2
1.000 UL
LT1
0.34 0.71 0.91 C LCb setrgbcolor
3158 4677 M
[ [(Helvetica) 200.0 0.0 true true 0 (Gates-ML10M)]
] -66.7 MRshow
LT1
0.34 0.71 0.91 C 3278 4627 543 100 80 -45 0 PatternFill
3278 4627 N
543 0 V
0 100 V
-543 0 V
0 -100 V
Z stroke
LT1
0.34 0.71 0.91 C 0.34 0.71 0.91 C 1495 640 76 202 80 -45 0 PatternFill
1495 640 N
0 201 V
75 0 V
0 -201 V
-75 0 V
Z stroke
0.34 0.71 0.91 C 2022 640 76 397 80 -45 0 PatternFill
2022 640 N
0 396 V
75 0 V
0 -396 V
-75 0 V
Z stroke
0.34 0.71 0.91 C 2548 640 77 615 80 -45 0 PatternFill
2548 640 N
0 614 V
76 0 V
0 -614 V
-76 0 V
Z stroke
0.34 0.71 0.91 C 3075 640 77 1124 80 -45 0 PatternFill
3075 640 N
0 1123 V
76 0 V
0 -1123 V
-76 0 V
Z stroke
0.34 0.71 0.91 C 3602 640 77 856 80 -45 0 PatternFill
3602 640 N
0 855 V
76 0 V
0 -855 V
-76 0 V
Z stroke
0.34 0.71 0.91 C 4129 640 76 927 80 -45 0 PatternFill
4129 640 N
0 926 V
75 0 V
0 -926 V
-75 0 V
Z stroke
0.34 0.71 0.91 C 4656 640 76 576 80 -45 0 PatternFill
4656 640 N
0 575 V
75 0 V
0 -575 V
-75 0 V
Z stroke
0.34 0.71 0.91 C 5183 640 76 2534 80 -45 0 PatternFill
5183 640 N
0 2533 V
75 0 V
0 -2533 V
-75 0 V
Z stroke
0.34 0.71 0.91 C 5710 640 76 2583 80 -45 0 PatternFill
5710 640 N
0 2582 V
75 0 V
0 -2582 V
-75 0 V
Z stroke
0.34 0.71 0.91 C 6237 640 76 2927 80 -45 0 PatternFill
6237 640 N
0 2926 V
75 0 V
0 -2926 V
-75 0 V
Z stroke
% End plot #2
% Begin plot #3
1.000 UL
LT2
0.80 0.47 0.65 C LCb setrgbcolor
5261 4877 M
[ [(Helvetica) 200.0 0.0 true true 0 (BALS-ML20M)]
] -66.7 MRshow
LT2
0.80 0.47 0.65 C 5381 4827 543 100 80 -45 1 PatternFill
5381 4827 N
543 0 V
0 100 V
-543 0 V
0 -100 V
Z stroke
LT2
0.80 0.47 0.65 C 0.80 0.47 0.65 C 1570 640 76 271 80 -45 1 PatternFill
1570 640 N
0 270 V
75 0 V
0 -270 V
-75 0 V
Z stroke
0.80 0.47 0.65 C 2097 640 76 509 80 -45 1 PatternFill
2097 640 N
0 508 V
75 0 V
0 -508 V
-75 0 V
Z stroke
0.80 0.47 0.65 C 2624 640 76 703 80 -45 1 PatternFill
2624 640 N
0 702 V
75 0 V
0 -702 V
-75 0 V
Z stroke
0.80 0.47 0.65 C 3151 640 76 1320 80 -45 1 PatternFill
3151 640 N
0 1319 V
75 0 V
0 -1319 V
-75 0 V
Z stroke
0.80 0.47 0.65 C 3678 640 76 1046 80 -45 1 PatternFill
3678 640 N
0 1045 V
75 0 V
0 -1045 V
-75 0 V
Z stroke
0.80 0.47 0.65 C 4204 640 77 1498 80 -45 1 PatternFill
4204 640 N
0 1497 V
76 0 V
0 -1497 V
-76 0 V
Z stroke
0.80 0.47 0.65 C 4731 640 77 1129 80 -45 1 PatternFill
4731 640 N
0 1128 V
76 0 V
0 -1128 V
-76 0 V
Z stroke
0.80 0.47 0.65 C 5258 640 77 2986 80 -45 1 PatternFill
5258 640 N
0 2985 V
76 0 V
0 -2985 V
-76 0 V
Z stroke
0.80 0.47 0.65 C 5785 640 76 3059 80 -45 1 PatternFill
5785 640 N
0 3058 V
75 0 V
0 -3058 V
-75 0 V
Z stroke
0.80 0.47 0.65 C 6312 640 76 3356 80 -45 1 PatternFill
6312 640 N
0 3355 V
75 0 V
0 -3355 V
-75 0 V
Z stroke
% End plot #3
% Begin plot #4
1.000 UL
LT3
0.00 0.62 0.45 C LCb setrgbcolor
5261 4677 M
[ [(Helvetica) 200.0 0.0 true true 0 (Gates-ML20M)]
] -66.7 MRshow
LT3
0.00 0.62 0.45 C 5381 4627 543 100 80 -45 1 PatternFill
5381 4627 N
543 0 V
0 100 V
-543 0 V
0 -100 V
Z stroke
LT3
0.00 0.62 0.45 C 0.00 0.62 0.45 C 1645 640 76 201 80 -45 1 PatternFill
1645 640 N
0 200 V
75 0 V
0 -200 V
-75 0 V
Z stroke
0.00 0.62 0.45 C 2172 640 76 399 80 -45 1 PatternFill
2172 640 N
0 398 V
75 0 V
0 -398 V
-75 0 V
Z stroke
0.00 0.62 0.45 C 2699 640 76 623 80 -45 1 PatternFill
2699 640 N
0 622 V
75 0 V
0 -622 V
-75 0 V
Z stroke
0.00 0.62 0.45 C 3226 640 76 1124 80 -45 1 PatternFill
3226 640 N
0 1123 V
75 0 V
0 -1123 V
-75 0 V
Z stroke
0.00 0.62 0.45 C 3753 640 76 874 80 -45 1 PatternFill
3753 640 N
0 873 V
75 0 V
0 -873 V
-75 0 V
Z stroke
0.00 0.62 0.45 C 4280 640 76 941 80 -45 1 PatternFill
4280 640 N
0 940 V
75 0 V
0 -940 V
-75 0 V
Z stroke
0.00 0.62 0.45 C 4807 640 76 588 80 -45 1 PatternFill
4807 640 N
0 587 V
75 0 V
0 -587 V
-75 0 V
Z stroke
0.00 0.62 0.45 C 5334 640 76 2569 80 -45 1 PatternFill
5334 640 N
0 2568 V
75 0 V
0 -2568 V
-75 0 V
Z stroke
0.00 0.62 0.45 C 5860 640 77 2630 80 -45 1 PatternFill
5860 640 N
0 2629 V
76 0 V
0 -2629 V
-76 0 V
Z stroke
0.00 0.62 0.45 C 6387 640 77 2978 80 -45 1 PatternFill
6387 640 N
0 2977 V
76 0 V
0 -2977 V
-76 0 V
Z stroke
% End plot #4
1.000 UL
LTb
LCb setrgbcolor
1043 4376 N
0 -3736 V
5796 0 V
0 3736 V
-5796 0 V
Z stroke
1.000 UP
1.000 UL
LTb
LCb setrgbcolor
stroke
grestore
end
showpage
%%Trailer
%%DocumentFonts: Helvetica
